<svg xmlns="http://www.w3.org/2000/svg" width="43.5" height="43.5" viewBox="0 0 43.5 43.5">
  <g id="Group_83" data-name="Group 83" transform="translate(-1286.25 -566.25)">
    <path id="Path_329" data-name="Path 329" d="M22.5,43.5a21,21,0,1,1,21-21A21,21,0,0,1,22.5,43.5Zm0,0" transform="translate(1285.5 565.5)" fill="#fff" stroke="#b0a9b0" stroke-width="1.5"/>
    <path id="Path_333" data-name="Path 333" d="M193.527,239.67a.8.8,0,0,0,.094-.006.75.75,0,0,0,.651-.837l-.75-6a.75.75,0,0,0-1.488.186l.75,6A.75.75,0,0,0,193.527,239.67Zm0,0" transform="translate(1111.473 355.08)" fill="#b0a9b0"/>
    <path id="Path_330" data-name="Path 330" d="M148.25,123h-7.638a2.223,2.223,0,0,0,.138-.75,2.25,2.25,0,1,0-4.5,0,2.223,2.223,0,0,0,.138.75H128.75a.75.75,0,0,0-.75.75v3a.75.75,0,0,0,.75.75h.825l1.432,14.325a.75.75,0,0,0,.75.675H145.25a.75.75,0,0,0,.75-.675l1.429-14.325h.821a.75.75,0,0,0,.75-.75v-3A.75.75,0,0,0,148.25,123Zm-10.5-.75a.75.75,0,1,1,.75.75A.75.75,0,0,1,137.75,122.25ZM144.575,141H132.428l-1.35-13.5h14.846Zm2.925-15h-18v-1.5h18Zm0,0" transform="translate(1169.5 456.75)" fill="#b0a9b0"/>
    <path id="Path_331" data-name="Path 331" d="M232.75,239.5a.75.75,0,0,0,.75-.75v-6a.75.75,0,0,0-1.5,0v6A.75.75,0,0,0,232.75,239.5Zm0,0" transform="translate(1075.25 355.25)" fill="#b0a9b0"/>
    <path id="Path_332" data-name="Path 332" d="M264.65,239.325a.875.875,0,0,0,.093.006.75.75,0,0,0,.743-.657l.75-6a.75.75,0,1,0-1.488-.186l-.75,6A.75.75,0,0,0,264.65,239.325Zm0,0" transform="translate(1046.257 355.42)" fill="#b0a9b0"/>
  </g>
</svg>
